DM Object: mesh-tri 1 MPI processes
  type: plex
mesh-tri in 2 dimensions:
Supports:
[0] Max support size: 2
[0]: 1 ----> 4
[0]: 1 ----> 6
[0]: 2 ----> 4
[0]: 2 ----> 5
[0]: 3 ----> 5
[0]: 3 ----> 6
[0]: 4 ----> 0
[0]: 5 ----> 0
[0]: 6 ----> 0
Cones:
[0] Max cone size: 3
[0]: 0 <---- 4 (0)
[0]: 0 <---- 5 (0)
[0]: 0 <---- 6 (0)
[0]: 4 <---- 1 (0)
[0]: 4 <---- 2 (0)
[0]: 5 <---- 2 (0)
[0]: 5 <---- 3 (0)
[0]: 6 <---- 3 (0)
[0]: 6 <---- 1 (0)
coordinates with 1 fields
  field 0 with 2 components
Process 0:
  (   1) dim  2 offset   0 0. 0.
  (   2) dim  2 offset   2 1. 0.
  (   3) dim  2 offset   4 0. 1.
Label 'celltype':
[0]: 1 (0)
[0]: 2 (0)
[0]: 3 (0)
[0]: 0 (3)
[0]: 4 (1)
[0]: 5 (1)
[0]: 6 (1)
